<svg xmlns="http://www.w3.org/2000/svg" width="276" height="187.26">
  <g data-name="Group 9" transform="translate(-221 -334)">
    <path data-name="Path 18" d="M221.255 344.143a12.752 12.752 0 0 0-.255 2.536v161.9a12.679 12.679 0 0 0 12.679 12.679h52.771V344.143z" fill="#001a2d"/>
    <path data-name="Rectangle 197" d="M286.45 334H487a10 10 0 0 1 10 10v167.26a10 10 0 0 1-10 10H286.45V334z" fill="#fff"/>
    <rect data-name="Rectangle 198" width="30.907" height="4.242" rx="1.673" transform="translate(227.666 381.828)" fill="#e0dfdf"/>
    <rect data-name="Rectangle 199" width="44.845" height="4.242" rx="1.673" transform="translate(227.666 394.554)" fill="#00c081"/>
    <rect data-name="Rectangle 200" width="38.785" height="4.242" rx="1.673" transform="translate(227.666 408.493)" fill="#e0dfdf"/>
    <rect data-name="Rectangle 201" width="16.969" height="4.242" rx="1.673" transform="translate(227.666 423.643)" fill="#e0dfdf"/>
    <g data-name="Group 7" fill="#e0dfdf">
      <path data-name="Path 19" d="M253.4 361.882l.931.931.931-.931-.931-.931zm-.621 0l1.552-1.552 1.553 1.552-1.553 1.553zm6.571-3.465l-2.2 2.2 2.509 2.509-.311.312-5.02-5.018-5.018 5.018-1.552-1.553 1.552-1.552.312.311-1.243 1.241.931.931 2.2-2.2-2.2-2.2-3.465 3.465 3.465 3.465 2.509-2.508 2.509 2.508 2.51-2.509 2.509 2.509 2.2-2.2-2.508-2.509.311-.311 2.509 2.509.956-.957z"/>
      <path data-name="Rectangle 202" d="M254.331 363.434l1.551-1.551.957.956-1.551 1.552z"/>
      <path data-name="Rectangle 203" d="M249.313 363.434l1.551-1.551.957.956-1.551 1.552z"/>
    </g>
    <path data-name="Rectangle 204" fill="#f7f7f7" d="M295.263 381.995h79.994v7.272h-79.994z"/>
    <path data-name="Rectangle 205" fill="#f7f7f7" d="M424.278 420.175h50.299v62.42h-50.299z"/>
    <path data-name="Rectangle 206" fill="#f7f7f7" d="M296.478 423.811h78.782v7.272h-78.782z"/>
    <path data-name="Rectangle 207" fill="#f7f7f7" d="M296.547 440.173h112.286v7.272H296.547z"/>
    <path data-name="Rectangle 208" fill="#f7f7f7" d="M296.913 457.748h78.349v7.272h-78.349z"/>
    <path data-name="Rectangle 209" fill="#f7f7f7" d="M296.948 475.322h97.135v7.272h-97.135z"/>
    <path data-name="Rectangle 210" fill="#e2e0e0" d="M295.802 396.54h170.897v.606H295.802z"/>
    <path data-name="Rectangle 211" fill="#f7f7f7" d="M298.841 496.413H324.9v7.272h-26.059z"/>
    <path data-name="Rectangle 212" fill="#e2e0e0" d="M299.438 510.957h170.897v.606H299.438z"/>
    <g data-name="Group 8">
      <path data-name="Path 20" d="M488.688 334H286.854a.2.2 0 0 0-.2.2v-.2h-52.936a12.713 12.713 0 0 0-12.464 10.143H497v-1.857a8.3 8.3 0 0 0-8.312-8.286z" fill="#dc3545"/>
    </g>
    <path data-name="Path 21" d="M287.318 354.088a.2.2 0 0 0 .2.2h209.285a.2.2 0 0 0 .2-.2v-9.945H287.318z" fill="#efefef"/>
  </g>
</svg>
