<svg xmlns="http://www.w3.org/2000/svg" width="275.721" height="187.661">
  <g data-name="Group 13" transform="translate(-519 -333)">
    <path data-name="Path 22" d="M519.255 343.165a12.783 12.783 0 0 0-.255 2.541v162.249a12.706 12.706 0 0 0 12.706 12.71h52.884v-177.5z" fill="#001a2d"/>
    <path data-name="Rectangle 213" d="M584.59 333h200.131a10 10 0 0 1 10 10v167.66a10 10 0 0 1-10 10H584.59V333z" fill="#fff"/>
    <rect data-name="Rectangle 214" width="30.973" height="4.251" rx="1.673" transform="translate(525.68 380.93)" fill="#e0dfdf"/>
    <rect data-name="Rectangle 215" width="44.941" height="4.251" rx="1.673" transform="translate(525.68 393.684)" fill="#00c081"/>
    <rect data-name="Rectangle 216" width="38.868" height="4.251" rx="1.673" transform="translate(525.68 407.652)" fill="#e0dfdf"/>
    <rect data-name="Rectangle 217" width="17.005" height="4.251" rx="1.673" transform="translate(525.68 422.835)" fill="#e0dfdf"/>
    <g data-name="Group 10" fill="#e0dfdf">
      <path data-name="Path 23" d="M551.469 348.236l.933.933.933-.933-.933-.933zm-.623 0l1.555-1.555 1.556 1.555-1.556 1.556zm6.586-3.473l-2.2 2.2 2.514 2.515-.311.313-5.03-5.029-5.029 5.029-1.555-1.556 1.555-1.555.313.311-1.245 1.244.933.933 2.2-2.2-2.2-2.2-3.472 3.473 3.472 3.473 2.515-2.513 2.511 2.504 2.516-2.515 2.515 2.515 2.2-2.2-2.513-2.515.311-.311 2.514 2.515.958-.959z"/>
      <path data-name="Rectangle 218" d="M552.402 349.791l1.555-1.555.959.959-1.555 1.555z"/>
      <path data-name="Rectangle 219" d="M547.373 349.791l1.555-1.555.958.959-1.554 1.555z"/>
    </g>
    <path data-name="Rectangle 220" fill="#f7f7f7" d="M593.092 381.098h80.166v7.288h-80.166z"/>
    <path data-name="Rectangle 221" fill="#f7f7f7" d="M721.843 419.359h50.407v62.553h-50.407z"/>
    <path data-name="Rectangle 222" fill="#f7f7f7" d="M594.307 423.003h78.951v7.288h-78.951z"/>
    <path data-name="Rectangle 223" fill="#f7f7f7" d="M594.307 439.401h112.526v7.288H594.307z"/>
    <path data-name="Rectangle 224" fill="#f7f7f7" d="M594.742 457.013h78.517v7.288h-78.517z"/>
    <path data-name="Rectangle 225" fill="#f7f7f7" d="M594.742 474.625h97.343v7.288h-97.343z"/>
    <path data-name="Rectangle 226" fill="#e2e0e0" d="M593.092 395.674h171.263v.607H593.092z"/>
    <path data-name="Rectangle 227" fill="#f7f7f7" d="M596.736 495.761h26.115v7.288h-26.115z"/>
    <path data-name="Rectangle 228" fill="#e2e0e0" d="M596.736 510.336h171.263v.607H596.736z"/>
    <g data-name="Group 11">
      <path data-name="Path 24" d="M786.418 333H584.789a.2.2 0 0 0-.2.2v-.2h-52.883a12.71 12.71 0 0 0-12.452 10.165h275.467V341.3a8.3 8.3 0 0 0-8.303-8.3z" fill="#001a2d"/>
    </g>
    <g data-name="Group 12">
      <path data-name="Path 25" d="M584.59 343.165h209.933a.2.2 0 0 0 .2-.2v-2.122a7.844 7.844 0 0 0-7.846-7.843H584.59z" fill="#efefef"/>
    </g>
    <path data-name="Rectangle 229" fill="#dc3545" d="M595.236 354.6h184.238v17.788H595.236z"/>
  </g>
</svg>
