<?xml version="1.0" encoding="utf-8"?>
<!-- Generator: Adobe Illustrator 21.1.0, SVG Export Plug-In . SVG Version: 6.00 Build 0)  -->
<svg version="1.1" id="Layer_1" xmlns="http://www.w3.org/2000/svg" xmlns:xlink="http://www.w3.org/1999/xlink" x="0px" y="0px"
	 viewBox="0 0 1792 1792" style="enable-background:new 0 0 1792 1792;" xml:space="preserve">
<style type="text/css">
	.st0{fill:#003258;}
</style>
<path class="st0" d="M1343,12v264h-157c-57.3,0-96,12-116,36s-30,60-30,108v189h293l-39,296h-254v759H734V905H479V609h255V391
	c0-124,34.7-220.2,104-288.5S999.7,0,1115,0C1213,0,1289,4,1343,12z"/>
</svg>
