{
  "name": "configuration_file",
  "do": "<ul><li>To represent a configuration file.</li></ul>",
  "dont": "<ul><li>To represent any other files or extensions.</li><li>To edit files. For this action use the edit icon from Material Design.</li></ul>",
  "tags": ["application", "maintenance", "files"]
}
