{
  "name": "software",
  "do": "<ul><li>To represent software.</li></ul>",
  "dont": "<ul><li>For software download. Use the material icon file_download instead.</li></ul>",
  "tags": ["channel", "list" ]
}
